[
  {
    "id" : "bronze",
    "name" : "Bronze Package",
    "image" : "bronze-image",
    "covers" : "121 Covers",
    "nameColor": "bronze-color",
    "hospital" : "12 Hospitals",
    "amount": "₦ 5,000",
    "planCover": [
        "Eye Care: upto N10,000",
        "Optical/Ophthalmological consultation, medical treatment, drugs & dressings",
        "Out Patient Care, General and Specialist Consultation",
        "Minor, Intermediate, Major Surgeries and Procedures",
        "Minor, Intermediate, Major Surgeries and Procedures",
        "Minor, Intermediate, Major Surgeries and Procedures"
    ],
    "allPlanCover": [
        "Eye Care: upto N10,000",
        "Optical/Ophthalmological consultation, medical treatment, drugs & dressings",
        "Out Patient Care, General and Specialist Consultation",
        "Minor, Intermediate, Major Surgeries and Procedures",
        "Minor, Intermediate, Major Surgeries and Procedures",
        "Minor, Intermediate, Major Surgeries and Procedures",
        "Eye Care: upto N10,000",
        "Optical/Ophthalmological consultation, medical treatment, drugs & dressings",
        "Out Patient Care, General and Specialist Consultation",
        "Minor, Intermediate, Major Surgeries and Procedures",
        "Minor, Intermediate, Major Surgeries and Procedures",
        "Minor, Intermediate, Major Surgeries and Procedures"
    ]
  },
  {
    "id" : "silver",
    "name" : "Silver Package",
    "image" : "silver-image",
    "covers" : "121 Covers",
    "nameColor": "silver-color",
    "hospital" : "12 Hospitals",
    "amount": "₦ 5,000",
    "planCover": [
        "Eye Care: upto N10,000",
        "Optical/Ophthalmological consultation, medical treatment, drugs & dressings",
        "Out Patient Care, General and Specialist Consultation",
        "Silver, Intermediate, Major Surgeries and Procedures",
        "Silver, Intermediate, Major Surgeries and Procedures",
    ],
    "allPlanCover": [
        "Eye Care: upto N10,000",
        "Optical/Ophthalmological consultation, medical treatment, drugs & dressings",
        "Out Patient Care, General and Specialist Consultation",
        "Silver, Intermediate, Major Surgeries and Procedures",
        "Silver, Intermediate, Major Surgeries and Procedures",
        "Eye Care: upto N10,000",
        "Optical/Ophthalmological consultation, medical treatment, drugs & dressings",
        "Out Patient Care, General and Specialist Consultation",
        "Silver, Intermediate, Major Surgeries and Procedures",
        "Silver, Intermediate, Major Surgeries and Procedures",
    ]
  },
  {
    "id" : "gold",
    "name" : "Gold Package",
    "image" : "gold-image",
    "covers" : "121 Covers",
    "nameColor": "gold-color",
    "hospital" : "12 Hospitals",
    "amount": "₦ 8,000",
    "planCover": [
        "Eye Care: upto N10,000",
        "Optical/Ophthalmological consultation, medical treatment, drugs & dressings",
        "Out Patient Care, General and Specialist Consultation",
        "Minor, Intermediate, Major Surgeries and Procedures",
        "Gold, Intermediate, Major Surgeries and Procedures",
        "Gold, Intermediate, Major Surgeries and Procedures"
    ],
    "allPlanCover": [
        "Eye Care: upto N10,000",
        "Optical/Ophthalmological consultation, medical treatment, drugs & dressings",
        "Out Patient Care, General and Specialist Consultation",
        "Minor, Intermediate, Major Surgeries and Procedures",
        "Gold, Intermediate, Major Surgeries and Procedures",
        "Gold, Intermediate, Major Surgeries and Procedures",
        "Eye Care: upto N10,000",
        "Optical/Ophthalmological consultation, medical treatment, drugs & dressings",
        "Out Patient Care, General and Specialist Consultation",
        "Minor, Intermediate, Major Surgeries and Procedures",
        "Gold, Intermediate, Major Surgeries and Procedures",
        "Gold, Intermediate, Major Surgeries and Procedures"
    ]
  },
  {
    "id" : "platinum",
    "name" : "Platinum Package",
    "image" : "platinum-image",
    "covers" : "121 Covers",
    "nameColor": "textColor",
    "hospital" : "12 Hospitals",
    "amount": "₦ 10,000",
    "planCover": [
        "Eye Care: upto N10,000",
        "Optical/Ophthalmological consultation, medical treatment, drugs & dressings",
        "Out Patient Care, General and Specialist Consultation",
        "Platinum, Intermediate, Major Surgeries and Procedures",
        "Platinum, Intermediate, Major Surgeries and Procedures",
        "Platinum, Intermediate, Major Surgeries and Procedures"
    ],
    "allPlanCover": [
        "Eye Care: upto N10,000",
        "Optical/Ophthalmological consultation, medical treatment, drugs & dressings",
        "Out Patient Care, General and Specialist Consultation",
        "Platinum, Intermediate, Major Surgeries and Procedures",
        "Platinum, Intermediate, Major Surgeries and Procedures",
        "Platinum, Intermediate, Major Surgeries and Procedures",
        "Eye Care: upto N10,000",
        "Optical/Ophthalmological consultation, medical treatment, drugs & dressings",
        "Out Patient Care, General and Specialist Consultation",
        "Platinum, Intermediate, Major Surgeries and Procedures",
        "Platinum, Intermediate, Major Surgeries and Procedures",
        "Platinum, Intermediate, Major Surgeries and Procedures"
    ]
  }
]
